<svg xmlns="http://www.w3.org/2000/svg" viewBox="-22 -23 44 46">
  <g fill="#54a2e1">
    <path d="M20.3-9C14.8 5 5.8 5.6.4 5.3L-.1 7.2C6.5 9 15.6 8.4 21.6-.4Z"/>
    <path d="M20.3-9C14.8 5 5.8 5.6.4 5.3L-.1 7.2C6.5 9 15.6 8.4 21.6-.4Z" transform="rotate(120)"/>
    <path d="M20.3-9C14.8 5 5.8 5.6.4 5.3L-.1 7.2C6.5 9 15.6 8.4 21.6-.4Z" transform="rotate(240)"/>
  </g>
  <g fill="#5a318e">
    <path d="M20.3-9C14.8 5 5.8 5.6.4 5.3L-.1 7.2C6.5 9 15.6 8.4 21.6-.4Z" transform="rotate(60)"/>
    <path d="M20.3-9C14.8 5 5.8 5.6.4 5.3L-.1 7.2C6.5 9 15.6 8.4 21.6-.4Z" transform="scale(-1)"/>
    <path d="M20.3-9C14.8 5 5.8 5.6.4 5.3L-.1 7.2C6.5 9 15.6 8.4 21.6-.4Z" transform="rotate(300)"/>
  </g>
  <path fill="none" stroke="#576ab7" d="M-10.18 4.52-9-6.55 1.17-11.07 10.18-4.52 9 6.55-1.17 11.07Z"/>
</svg>
